%!PS-Adobe-3.0
%%DocumentNeededResources: font Helvetica
%%+ font Helvetica-Bold
%%+ font Helvetica-Oblique
%%+ font Helvetica-BoldOblique
%%+ font Symbol
%%DocumentMedia: special 432 432 0 () ()
%%Title: R Graphics Output
%%Creator: R Software
%%Pages: (atend)
%%BoundingBox: 0 0 432 432
%%EndComments
%%BeginProlog
/bp  { gs gs } def
% begin .ps.prolog
/gs  { gsave } def
/gr  { grestore } def
/ep  { showpage gr gr } def
/m   { moveto } def
/l  { rlineto } def
/np  { newpath } def
/cp  { closepath } def
/f   { fill } def
/o   { stroke } def
/c   { newpath 0 360 arc } def
/r   { 4 2 roll moveto 1 copy 3 -1 roll exch 0 exch rlineto 0 rlineto -1 mul 0 exch rlineto closepath } def
/p1  { stroke } def
/p2  { gsave bg fill grestore newpath } def
/p3  { gsave bg fill grestore stroke } def
/p6  { gsave bg eofill grestore newpath } def
/p7  { gsave bg eofill grestore stroke } def
/t   { 5 -2 roll moveto gsave rotate
       1 index stringwidth pop
       mul neg 0 rmoveto show grestore } def
/ta  { 4 -2 roll moveto gsave rotate show } def
/tb  { 2 -1 roll 0 rmoveto show } def
/cl  { grestore gsave newpath 3 index 3 index moveto 1 index
       4 -1 roll lineto  exch 1 index lineto lineto
       closepath clip newpath } def
/rgb { setrgbcolor } def
/s   { scalefont setfont } def
% end   .ps.prolog
%%IncludeResource: font Helvetica
/Helvetica findfont
dup length dict begin
  {1 index /FID ne {def} {pop pop} ifelse} forall
  /Encoding ISOLatin1Encoding def
  currentdict
  end
/Font1 exch definefont pop
%%IncludeResource: font Helvetica-Bold
/Helvetica-Bold findfont
dup length dict begin
  {1 index /FID ne {def} {pop pop} ifelse} forall
  /Encoding ISOLatin1Encoding def
  currentdict
  end
/Font2 exch definefont pop
%%IncludeResource: font Helvetica-Oblique
/Helvetica-Oblique findfont
dup length dict begin
  {1 index /FID ne {def} {pop pop} ifelse} forall
  /Encoding ISOLatin1Encoding def
  currentdict
  end
/Font3 exch definefont pop
%%IncludeResource: font Helvetica-BoldOblique
/Helvetica-BoldOblique findfont
dup length dict begin
  {1 index /FID ne {def} {pop pop} ifelse} forall
  /Encoding ISOLatin1Encoding def
  currentdict
  end
/Font4 exch definefont pop
%%IncludeResource: font Symbol
/Symbol findfont
dup length dict begin
  {1 index /FID ne {def} {pop pop} ifelse} forall
  currentdict
  end
/Font5 exch definefont pop
%%EndProlog
%%Page: 1 1
bp
0.00 0.00 432.00 432.00 cl
/Font1 findfont 12 s
0 setgray
210.73 47.52 (countr) 0 ta
0.360 (y) tb gr
41.76 195.86 (motiv) 90 ta
-0.300 (ation) tb gr
59.04 73.44 401.76 372.96 cl
/Font1 findfont 8 s
0 setgray
52.25 367.05 (A countr) 0 ta
0.240 (y in Europe) tb gr
169.00 366.25 (India) .5 0 t
214.12 366.97 (Some other countr) 0 ta
0.240 (y ) tb gr
325.98 366.19 (United States) .5 0 t
66.69 307.96 (Ha) 90 ta
-0.160 (v) tb
-0.200 (e fun) tb gr
66.65 244.52 (Lear) 90 ta
0.200 (n ne) tb
-0.160 (w skills) tb gr
65.86 142.41 (Mak) 90 ta
-0.160 (e mone) tb
-0.160 (y) tb gr
/bg { 0.7451 setgray } def
0.75 setlinewidth
[] 0 setdash
1 setlinecap
1 setlinejoin
10.00 setmiterlimit
np
 75.85 289.97 m
23.06 0 l
0 68.00 l
-23.06 0 l
cp p3
np
 75.85 261.64 m
23.06 0 l
0 22.66 l
-23.06 0 l
cp p3
np
 75.85 74.64 m
23.06 0 l
0 181.33 l
-23.06 0 l
cp p3
np
 105.09 347.74 m
127.82 0 l
0 10.23 l
-127.82 0 l
cp p3
np
 105.09 307.31 m
127.82 0 l
0 34.77 l
-127.82 0 l
cp p3
np
 105.09 74.64 m
127.82 0 l
0 227.00 l
-127.82 0 l
cp p3
np
 239.08 310.67 m
22.11 0 l
0 47.30 l
-22.11 0 l
cp p3
np
 239.08 281.35 m
22.11 0 l
0 23.65 l
-22.11 0 l
cp p3
np
 239.08 74.64 m
22.11 0 l
0 201.04 l
-22.11 0 l
cp p3
np
 267.36 322.30 m
117.25 0 l
0 35.67 l
-117.25 0 l
cp p3
np
 267.36 309.94 m
117.25 0 l
0 6.69 l
-117.25 0 l
cp p3
np
 267.36 74.64 m
117.25 0 l
0 229.64 l
-117.25 0 l
cp p3
ep
%%Trailer
%%Pages: 1
%%EOF
