\relax 
\citation{andreoni1990impure}
\citation{fehr1999theory}
\citation{camerer2003behavioral}
\citation{axelrod1981evolution}
\citation{camerer2003behavioral}
\@writefile{toc}{\contentsline {subsection}{\numberline {0.1}Quantitative replication: Social preferences}{1}}
\citation{benjamin2010social}
\@writefile{lof}{\contentsline {figure}{\numberline {1}{\ignorespaces Cooperation in a one-shot Prisonerís Dilemma is similar amongst offline laboratory subjects, MTurk workers who correctly answered five payoff comprehension questions, and all MTurk workers. Error bars indicate standard error of the mean. \vspace  \bigskipamount }}{2}}
\newlabel{figX2}{{1}{2}}
\@writefile{toc}{\contentsline {subsection}{\numberline {0.2}Qualitative replication: Priming}{2}}
\citation{shariff2007god}
\citation{benjamin2010}
\@writefile{lof}{\contentsline {figure}{\numberline {2}{\ignorespaces Reading a religious passage significantly increases Prisoner's Dilemma cooperation among those who believe in God, but not among non-believers. Error bars indicate standard error of the mean.\vspace  \bigskipamount }}{4}}
\newlabel{figX}{{2}{4}}
\global\c@lastpage=4
