PAYMENT RECORD 1266943626.33
[$141.42]
Approved, A103XX92AATRSG , Good Work
Bonus, A103XX92AATRSG , 0.01
Approved, A10LA17KH1ZH1Z , Good Work
Bonus, A10LA17KH1ZH1Z , 0.25
Approved, A10QD3U7O93BV6 , Good Work
Bonus, A10QD3U7O93BV6 , 0.25
Approved, A10YPWCOWZM0OV , Good Work
Approved, A119AMKC5T86VF , Good Work
Bonus, A119AMKC5T86VF , 0.05
Rejected, A11MYVCCB4MDB , ['Same IP as other worker - multiple accounts.']
Approved, A11POOHZB7OZIY , Good Work
Bonus, A11POOHZB7OZIY , 0.05
Approved, A12S63PE4DOCSD , Good Work
Approved, A12WKBPAX6ZSMS , Good Work
Bonus, A12WKBPAX6ZSMS , 0.05
Approved, A131CBUQKTKOA5 , Good Work
Approved, A14AHQ9Q0W9BBV , Good Work
Bonus, A14AHQ9Q0W9BBV , 0.15
Approved, A14E1IBAT21JYP , Good Work
Approved, A14IQ4GLNWNPOJ , Good Work
Bonus, A14IQ4GLNWNPOJ , 0.05
Approved, A14UX9WUBSXE1M , Good Work
Bonus, A14UX9WUBSXE1M , 0.05
Rejected, A1588NLX5G7X02 , ['Same IP as other worker - multiple accounts.']
Approved, A15U5SVBO744AZ , Good Work
Bonus, A15U5SVBO744AZ , 0.05
Rejected, A164DULMZXGMXC , ['Error rate too high (more than 100 errors).']
Rejected, A16BNFHB9JFKF8 , ['Error rate too high (more than 100 errors).']
Approved, A16LARVY6I74BE , Good Work
Approved, A16PO174K6I9BR , Good Work
Approved, A17C2H9W3EL9YD , Good Work
Bonus, A17C2H9W3EL9YD , 0.25
Approved, A18D6U1ICY6PPW , Good Work
Bonus, A18D6U1ICY6PPW , 0.05
Approved, A18OBAH8EXBADM , Good Work
Bonus, A18OBAH8EXBADM , 0.25
Rejected, A18VQOT5PO8L0M , ['Error rate too high (more than 100 errors).']
Approved, A19CJX4NPP158A , Good Work
Bonus, A19CJX4NPP158A , 0.01
Approved, A19OCN9KO1NWNL , Good Work
Approved, A1A1OQTDRLYQCY , Good Work
Bonus, A1A1OQTDRLYQCY , 0.01
Approved, A1ADWPP19BHSTQ , Good Work
Bonus, A1ADWPP19BHSTQ , 0.25
Rejected, A1AOB9O0NEFXMW , ['Error rate too high (more than 100 errors).']
Approved, A1B326VW79CZEP , Good Work
Bonus, A1B326VW79CZEP , 0.25
Approved, A1BI08J2FTKB73 , Good Work
Bonus, A1BI08J2FTKB73 , 0.01
Approved, A1BPHROMQGW5IP , Good Work
Bonus, A1BPHROMQGW5IP , 0.25
Rejected, A1C136NG8KA5Q , No match
Approved, A1CBCS9WWIXM3I , Good Work
Bonus, A1CBCS9WWIXM3I , 0.01
Approved, A1CBZN1GZCOJ1H , Good Work
Bonus, A1CBZN1GZCOJ1H , 0.05
Approved, A1CCSCRUECPCIX , Good Work
Bonus, A1CCSCRUECPCIX , 0.05
Approved, A1CP0KOI54F07N , Good Work
Bonus, A1CP0KOI54F07N , 0.25
Approved, A1DGP9NGJYM8VT , Good Work
Bonus, A1DGP9NGJYM8VT , 0.05
Approved, A1DRG42AP8OS7O , Good Work
Approved, A1E0EK09CA5OIO , Good Work
Approved, A1E7F2GN342PXO , Good Work
Rejected, A1E8YNM0LQUVO3 , ['Did not do first paragraph transcription.']
Approved, A1EM5B600G9U02 , Good Work
Rejected, A1FJ1WJVJBTVLO , ['Error rate too high (more than 100 errors).']
Rejected, A1FK7Z75CNG2J1 , ['Did not do first paragraph transcription.']
Approved, A1GHMM8WNMYZSN , Good Work
Bonus, A1GHMM8WNMYZSN , 0.25
Approved, A1GQHUSYBUAE61 , Good Work
Approved, A1HC1XOFQLK2Q5 , Good Work
Bonus, A1HC1XOFQLK2Q5 , 0.01
Approved, A1HCFWFN0WU0JN , Good Work
Bonus, A1HCFWFN0WU0JN , 0.15
Approved, A1HFR4IA9HGYR , Good Work
Bonus, A1HFR4IA9HGYR , 0.25
Approved, A1HJGE419Z45YC , Good Work
Bonus, A1HJGE419Z45YC , 0.15
Approved, A1HSW3UIXVTOXH , Good Work
Bonus, A1HSW3UIXVTOXH , 0.05
Approved, A1I9GI6HB16R11 , Good Work
Bonus, A1I9GI6HB16R11 , 0.15
Approved, A1IGBIQ8G2XNGY , Good Work
Bonus, A1IGBIQ8G2XNGY , 0.15
Approved, A1IHLVA30Q2ZQD , Good Work
Bonus, A1IHLVA30Q2ZQD , 0.25
Approved, A1IMOZU5E742NG , Good Work
Bonus, A1IMOZU5E742NG , 0.05
Approved, A1J4OL0U6PPQ0D , Good Work
Bonus, A1J4OL0U6PPQ0D , 0.15
Approved, A1K9CZ4K2ODFZG , Good Work
Bonus, A1K9CZ4K2ODFZG , 0.15
Approved, A1KLDPZBJ5QUSL , Good Work
Rejected, A1KYGIQG2H1Y29 , ['Did not do first paragraph transcription.']
Approved, A1LJM6I7ABY95X , Good Work
Bonus, A1LJM6I7ABY95X , 0.25
Approved, A1LMDHV7V6OIZX , Good Work
Approved, A1LP244QKOIQZ7 , Good Work
Bonus, A1LP244QKOIQZ7 , 0.01
Rejected, A1M2YE8GTZOY7C , ['Same IP as other worker - multiple accounts.']
Rejected, A1M660RNP5FG1B , ['Same IP as other worker - multiple accounts.']
Approved, A1MOJV5ZB986B4 , Good Work
Bonus, A1MOJV5ZB986B4 , 0.15
Approved, A1NUQUL1LWZJDR , Good Work
Bonus, A1NUQUL1LWZJDR , 0.25
Approved, A1O30XC326EYKG , Good Work
Bonus, A1O30XC326EYKG , 0.25
Approved, A1O3O69M05N9FT , Good Work
Bonus, A1O3O69M05N9FT , 0.05
Rejected, A1OF7H1DOJXA6F , ['Same IP as other worker - multiple accounts.']
Rejected, A1ORUY0TSVYEOL , ['Same IP as other worker - multiple accounts.']
Approved, A1P1VDXKDUWR2T , Good Work
Approved, A1P9MZDR96TBFC , Good Work
Bonus, A1P9MZDR96TBFC , 0.01
Approved, A1PRVG92JR2PR2 , Good Work
Rejected, A1RDAQITV1QQZE , ['Did not do first paragraph transcription.']
Approved, A1RE4EYEQZG7CO , Good Work
Rejected, A1RE7KQT8VZ23D , ['Error rate too high (more than 100 errors).']
Approved, A1T2Z8792T0WT8 , Good Work
Bonus, A1T2Z8792T0WT8 , 0.05
Approved, A1TAP1B8HNMBSL , Good Work
Bonus, A1TAP1B8HNMBSL , 0.05
Approved, A1TB0RWVFP2LCI , Good Work
Rejected, A1TBW66L7DU39A , ['Error rate too high (more than 100 errors).']
Approved, A1TNZHUYU33XH6 , Good Work
Bonus, A1TNZHUYU33XH6 , 0.25
Rejected, A1TV310CPDOA5T , ['Did not do first paragraph transcription.']
Approved, A1UA93BAQ1C67O , Good Work
Bonus, A1UA93BAQ1C67O , 0.15
Approved, A1ULZ6BH1WIV5A , Good Work
Bonus, A1ULZ6BH1WIV5A , 0.25
Approved, A1UXQMR1M75ECD , Good Work
Bonus, A1UXQMR1M75ECD , 0.05
Approved, A1VKHE5L6QVFUV , Good Work
Bonus, A1VKHE5L6QVFUV , 0.05
Rejected, A1VWKZICLVATXU , ['Same IP as other worker - multiple accounts.']
Approved, A1XB1K1WVP74N3 , Good Work
Bonus, A1XB1K1WVP74N3 , 0.05
Approved, A1XJVBMD418F24 , Good Work
Bonus, A1XJVBMD418F24 , 0.25
Approved, A1Y18ZF6W1NECJ , Good Work
Bonus, A1Y18ZF6W1NECJ , 0.25
Approved, A1YEXP2UXRMA2I , Good Work
Approved, A1Z53763UXALP , Good Work
Approved, A1ZLXA4WS4H6AZ , Good Work
Bonus, A1ZLXA4WS4H6AZ , 0.05
Approved, A1ZSXE1V7GWZ47 , Good Work
Bonus, A1ZSXE1V7GWZ47 , 0.15
Rejected, A200H4TX468LE , No match
Approved, A2024CXWJN0VS3 , Good Work
Bonus, A2024CXWJN0VS3 , 0.05
Approved, A214UDW11EVLVZ , Good Work
Bonus, A214UDW11EVLVZ , 0.05
Approved, A21U13DMLTNY6R , Good Work
Bonus, A21U13DMLTNY6R , 0.01
Approved, A22CKWYKWEL537 , Good Work
Bonus, A22CKWYKWEL537 , 0.15
Rejected, A22CR85DXTX4VY , No match
Approved, A22ER63JXNR5X0 , Good Work
Bonus, A22ER63JXNR5X0 , 0.25
Approved, A22TJHXVZF5D22 , Good Work
Bonus, A22TJHXVZF5D22 , 0.25
Approved, A23NDXOECQU0XY , Good Work
Bonus, A23NDXOECQU0XY , 0.25
Approved, A23SJXUQ6RL40T , Good Work
Bonus, A23SJXUQ6RL40T , 0.01
Approved, A23Y99P6PXHO5P , Good Work
Bonus, A23Y99P6PXHO5P , 0.15
Approved, A24I4A2AW3GCMV , Good Work
Approved, A253LJVT2G20WQ , Good Work
Bonus, A253LJVT2G20WQ , 0.01
Approved, A25Q8PI0O76EIO , Good Work
Bonus, A25Q8PI0O76EIO , 0.05
Rejected, A25ZXFBN0NDC7L , ['Did not do first paragraph transcription.']
Approved, A267KOCNYMQIIV , Good Work
Rejected, A26CEG4TFIN21G , ['Error rate too high (more than 100 errors).']
Rejected, A27LEI2QARIMGN , ['Error rate too high (more than 100 errors).']
Approved, A282C5QI5LZMAE , Good Work
Bonus, A282C5QI5LZMAE , 0.25
Approved, A28GTG78A8VHA8 , Good Work
Approved, A28ZCITC0FEMKQ , Good Work
Bonus, A28ZCITC0FEMKQ , 0.05
Approved, A2934SLIY7LB2 , Good Work
Approved, A294BWGTW9QFZW , Good Work
Approved, A294CKKIOIKH66 , Good Work
Bonus, A294CKKIOIKH66 , 0.25
Approved, A298VR5OZPBFYU , Good Work
Bonus, A298VR5OZPBFYU , 0.15
Approved, A29QTLXBC83LMP , Good Work
Bonus, A29QTLXBC83LMP , 0.05
Approved, A29U1EPR71W64 , Good Work
Bonus, A29U1EPR71W64 , 0.15
Rejected, A29W3XXLQG2DGE , No match
Rejected, A2A0LD60WFPPH , ['Same IP as other worker - multiple accounts.']
Approved, A2A1RKGWHWET42 , Good Work
Bonus, A2A1RKGWHWET42 , 0.01
Rejected, A2AL4SXWGVL38T , ['Did not do first paragraph transcription.']
Approved, A2BL54QCB07I79 , Good Work
Bonus, A2BL54QCB07I79 , 0.15
Rejected, A2C0W4EUC48Q1A , ['Same IP as other worker - multiple accounts.']
Rejected, A2CF5XSGAXA56F , ['Error rate too high (more than 100 errors).']
Rejected, A2CS48CU9FUM4A , ['Did not do first paragraph transcription.']
Approved, A2CYXJN004NHUR , Good Work
Bonus, A2CYXJN004NHUR , 0.05
Approved, A2DCDLURASK9TR , Good Work
Bonus, A2DCDLURASK9TR , 0.25
Approved, A2DRGDSOKSNC9R , Good Work
Bonus, A2DRGDSOKSNC9R , 0.05
Approved, A2DSC8WYRCDR2 , Good Work
Rejected, A2E1X20E6TJYWY , ['Same IP as other worker - multiple accounts.']
Approved, A2E95ZTY4F2IXT , Good Work
Approved, A2EB82V1YTIUOQ , Good Work
Bonus, A2EB82V1YTIUOQ , 0.25
Rejected, A2EQZRRITDQ59I , No match
Approved, A2EXDOBFGXWBAB , Good Work
Bonus, A2EXDOBFGXWBAB , 0.15
Rejected, A2FKS9OGN4UAUP , ['Did not do first paragraph transcription.']
Approved, A2FLGUXACL7S47 , Good Work
Approved, A2FX59BFPTTIM0 , Good Work
Rejected, A2G7KH639I39M4 , ['Did not do first paragraph transcription.']
Rejected, A2GOJ399KOUWAI , No match
Approved, A2GYOB7OMFK2RH , Good Work
Approved, A2H29J9I5X9Z2Q , Good Work
Approved, A2H321P1NSEW35 , Good Work
Bonus, A2H321P1NSEW35 , 0.15
Approved, A2HCBF5SH18ZZ5 , Good Work
Bonus, A2HCBF5SH18ZZ5 , 0.05
Rejected, A2HD7LNP9C3YX2 , ['Same IP as other worker - multiple accounts.']
Approved, A2HF046MWCI8M2 , Good Work
Approved, A2HRZ8560S23JC , Good Work
Bonus, A2HRZ8560S23JC , 0.15
Rejected, A2I93BY3DHX3MB , ['Same IP as other worker - multiple accounts.']
Approved, A2IL4TO8O1NPHP , Good Work
Bonus, A2IL4TO8O1NPHP , 0.01
Approved, A2IPUCSVHXEQNV , Good Work
Bonus, A2IPUCSVHXEQNV , 0.25
Rejected, A2J15ZA6PRZ7RN , ['Did not do first paragraph transcription.']
Approved, A2JAT1J4S46NFD , Good Work
Rejected, A2JPXAF2MC24F7 , No match
Approved, A2JR2B1DHVL9XJ , Good Work
Bonus, A2JR2B1DHVL9XJ , 0.15
Approved, A2JZ6VKJ1UOLNY , Good Work
Bonus, A2JZ6VKJ1UOLNY , 0.15
Approved, A2KLSLYY7CIW9A , Good Work
Bonus, A2KLSLYY7CIW9A , 0.05
Approved, A2KTYIPSXCGLDG , Good Work
Bonus, A2KTYIPSXCGLDG , 0.15
Approved, A2LEALREFXMN8J , Good Work
Approved, A2LOFYK28R9WGO , Good Work
Approved, A2M5JYZODXCQ0W , Good Work
Bonus, A2M5JYZODXCQ0W , 0.01
Approved, A2M6ON3DU45IEO , Good Work
Bonus, A2M6ON3DU45IEO , 0.15
Approved, A2MAMG0BBIB468 , Good Work
Approved, A2MS8A7AKC9P4B , Good Work
Bonus, A2MS8A7AKC9P4B , 0.15
Approved, A2O4WB8RB5JCAP , Good Work
Bonus, A2O4WB8RB5JCAP , 0.25
Rejected, A2OE4K3PE3Y8P4 , ['Error rate too high (more than 100 errors).']
Rejected, A2OGNMIS6KN4OZ , ['Error rate too high (more than 100 errors).']
Rejected, A2OIJT42LMDV6C , ['Same IP as other worker - multiple accounts.']
Approved, A2OMUF7KBEBI8S , Good Work
Bonus, A2OMUF7KBEBI8S , 0.01
Approved, A2OPFY82K9L7H5 , Good Work
Bonus, A2OPFY82K9L7H5 , 0.05
Rejected, A2OW8YT9EJ9TKM , No match
Approved, A2P37RYCPU7O8R , Good Work
Bonus, A2P37RYCPU7O8R , 0.15
Approved, A2QCNJTHQJNYIV , Good Work
Bonus, A2QCNJTHQJNYIV , 0.05
Rejected, A2QJO2YERLP2RX , ['Did not do first paragraph transcription.']
Approved, A2QMN96QVSTV5A , Good Work
Bonus, A2QMN96QVSTV5A , 0.25
Approved, A2QNZ7FUBNVZUX , Good Work
Bonus, A2QNZ7FUBNVZUX , 0.05
Rejected, A2SFCQFZA4ZBW8 , ['Error rate too high (more than 100 errors).']
Approved, A2SWJU37QBB7D5 , Good Work
Bonus, A2SWJU37QBB7D5 , 0.25
Rejected, A2T0PFZ8LW71DL , ['Error rate too high (more than 100 errors).']
Approved, A2T5NXTLARB8J5 , Good Work
Bonus, A2T5NXTLARB8J5 , 0.05
Approved, A2TRG9S9KM90UE , Good Work
Bonus, A2TRG9S9KM90UE , 0.25
Approved, A2TU3A49SQPP70 , Good Work
Bonus, A2TU3A49SQPP70 , 0.25
Approved, A2U937E4EQ1RDF , Good Work
Bonus, A2U937E4EQ1RDF , 0.05
Approved, A2UAOOWYADOD14 , Good Work
Bonus, A2UAOOWYADOD14 , 0.25
Approved, A2VK2O0KBAVMD0 , Good Work
Bonus, A2VK2O0KBAVMD0 , 0.01
Approved, A2VZF4C0NSZ66U , Good Work
Bonus, A2VZF4C0NSZ66U , 0.15
Approved, A2WJE1NTM3UG43 , Good Work
Bonus, A2WJE1NTM3UG43 , 0.15
Approved, A2XDXPOMPBH2S2 , Good Work
Bonus, A2XDXPOMPBH2S2 , 0.01
Approved, A2XON1EQOHHFE4 , Good Work
Bonus, A2XON1EQOHHFE4 , 0.05
Approved, A2XPQ8KYFKI6FD , Good Work
Bonus, A2XPQ8KYFKI6FD , 0.15
Approved, A2XSI8BSDC4VC1 , Good Work
Bonus, A2XSI8BSDC4VC1 , 0.25
Rejected, A2XVC8AOQ8R5DK , ['Did not do first paragraph transcription.']
Approved, A2XVLENAJYX691 , Good Work
Bonus, A2XVLENAJYX691 , 0.15
Approved, A2Y61DESUJ856O , Good Work
Bonus, A2Y61DESUJ856O , 0.05
Approved, A2Y8EN7F4A7H7V , Good Work
Bonus, A2Y8EN7F4A7H7V , 0.25
Approved, A2YLF04UAKYVF1 , Good Work
Approved, A2YQTEW93HLHTO , Good Work
Bonus, A2YQTEW93HLHTO , 0.15
Approved, A2YXEV1PCI29R7 , Good Work
Bonus, A2YXEV1PCI29R7 , 0.05
Approved, A2Z5C2O5837B3D , Good Work
Bonus, A2Z5C2O5837B3D , 0.15
Rejected, A2ZAKJNEE2WJSS , ['Same IP as other worker - multiple accounts.']
Rejected, A2ZC8K2PNHFNN , ['Did not do first paragraph transcription.']
Approved, A2ZMOYU7L64DLO , Good Work
Bonus, A2ZMOYU7L64DLO , 0.15
Approved, A309LSE5RNHWYP , Good Work
Rejected, A31ILGQPFCGX9F , ['Error rate too high (more than 100 errors).']
Approved, A31P54MHBGUGLE , Good Work
Approved, A31PSON0DCNJ4O , Good Work
Approved, A339ADK5QEQS1X , Good Work
Bonus, A339ADK5QEQS1X , 0.25
Approved, A33HFLQ1MYM8KJ , Good Work
Bonus, A33HFLQ1MYM8KJ , 0.25
Rejected, A33TS8N48FBPK , ['Same IP as other worker - multiple accounts.']
Rejected, A346I1E81X8NQI , No match
Approved, A34HAWRROCBPY2 , Good Work
Rejected, A34S6WJF3D5BB7 , ['Did not do first paragraph transcription.']
Rejected, A353NXA617O8V1 , ['Did not do first paragraph transcription.']
Approved, A35XEGY374BMJG , Good Work
Bonus, A35XEGY374BMJG , 0.15
Approved, A36FUIVLF6OZNF , Good Work
Bonus, A36FUIVLF6OZNF , 0.05
Approved, A36O6NEVY3ZKXH , Good Work
Bonus, A36O6NEVY3ZKXH , 0.05
Approved, A36XQ4TW3OMW0N , Good Work
Approved, A36Y503MT333BI , Good Work
Bonus, A36Y503MT333BI , 0.15
Approved, A36YZFW9YK6AUU , Good Work
Bonus, A36YZFW9YK6AUU , 0.15
Approved, A37ZLQ7FJ99ILX , Good Work
Bonus, A37ZLQ7FJ99ILX , 0.05
Approved, A385LM6N33I5SD , Good Work
Bonus, A385LM6N33I5SD , 0.05
Approved, A387SK5ZG9UYGS , Good Work
Bonus, A387SK5ZG9UYGS , 0.15
Rejected, A38SYS6BVX7MZN , ['Same IP as other worker - multiple accounts.']
Approved, A3921NKOJY4VYX , Good Work
Bonus, A3921NKOJY4VYX , 0.25
Approved, A3A7J4IB2D69E , Good Work
Approved, A3ADJ3IA7NOYWA , Good Work
Approved, A3B1RM8OOSO0U5 , Good Work
Rejected, A3B2O3SOMXJ2OF , ['Did not do first paragraph transcription.']
Approved, A3B6WW7EW2G4RT , Good Work
Bonus, A3B6WW7EW2G4RT , 0.25
Approved, A3B873ZVVL936Z , Good Work
Bonus, A3B873ZVVL936Z , 0.05
Approved, A3BHKA9DHKL47Y , Good Work
Bonus, A3BHKA9DHKL47Y , 0.25
Approved, A3BI62ICG8AGR5 , Good Work
Bonus, A3BI62ICG8AGR5 , 0.25
Approved, A3BXEOZJ3GY4L4 , Good Work
Bonus, A3BXEOZJ3GY4L4 , 0.25
Approved, A3C6CBFZZQATCY , Good Work
Bonus, A3C6CBFZZQATCY , 0.05
Approved, A3C7AVL4R1C1J4 , Good Work
Bonus, A3C7AVL4R1C1J4 , 0.15
Rejected, A3C9QSM8NAQIC , ['Same IP as other worker - multiple accounts.']
Approved, A3CMO6KSR3ALU9 , Good Work
Approved, A3CW1OAI5DMIGH , Good Work
Bonus, A3CW1OAI5DMIGH , 0.15
Approved, A3D04QYWXLX7GG , Good Work
Bonus, A3D04QYWXLX7GG , 0.25
Rejected, A3D8FGMGGAJDUG , ['Did not do first paragraph transcription.']
Approved, A3DD3UTWF7PVB4 , Good Work
Bonus, A3DD3UTWF7PVB4 , 0.15
Approved, A3DQNF7G5LSGX4 , Good Work
Approved, A3EGN2M97O5C67 , Good Work
Approved, A3EU2ZIKRJTLQD , Good Work
Approved, A3EVR7FOPM6EA0 , Good Work
Bonus, A3EVR7FOPM6EA0 , 0.25
Rejected, A3F06KRH5VRDJH , ['Did not do first paragraph transcription.']
Approved, A3F5UEE9TRP56M , Good Work
Bonus, A3F5UEE9TRP56M , 0.01
Approved, A3FTQZ7K1HLZK9 , Good Work
Bonus, A3FTQZ7K1HLZK9 , 0.15
Approved, A3FY48N559UA2L , Good Work
Bonus, A3FY48N559UA2L , 0.15
Rejected, A3G9XIQD7RFDEK , No match
Approved, A3GFMY17QI5BUO , Good Work
Bonus, A3GFMY17QI5BUO , 0.15
Rejected, A3GSIYV4TWWQ22 , ['Error rate too high (more than 100 errors).']
Approved, A3GXSHLBND9E92 , Good Work
Bonus, A3GXSHLBND9E92 , 0.01
Approved, A3GYELNZU25355 , Good Work
Approved, A3HHMTEVFJ7Q6U , Good Work
Bonus, A3HHMTEVFJ7Q6U , 0.15
Approved, A3HXRJYLP34C3Y , Good Work
Bonus, A3HXRJYLP34C3Y , 0.15
Approved, A3I0KZ8DZBFBXU , Good Work
Approved, A3I17NEOCU7A28 , Good Work
Rejected, A3IAS0L9QO9LBR , No match
Approved, A3IHUM19PHC18Q , Good Work
Bonus, A3IHUM19PHC18Q , 0.25
Rejected, A3IOBPLRXY8ALP , No match
Approved, A3J6VPD5BCKJAI , Good Work
Bonus, A3J6VPD5BCKJAI , 0.15
Rejected, A3JBK6WV9KTL3B , ['Error rate too high (more than 100 errors).']
Approved, A3JCW8GZQK4TGI , Good Work
Bonus, A3JCW8GZQK4TGI , 0.15
Approved, A3JICF63YJBG5I , Good Work
Bonus, A3JICF63YJBG5I , 0.25
Approved, A3JUJFZ5TUS011 , Good Work
Approved, A3LP0S9HL5PN3Y , Good Work
Bonus, A3LP0S9HL5PN3Y , 0.05
Approved, A3M7VTGRSQFKED , Good Work
Bonus, A3M7VTGRSQFKED , 0.15
Approved, A3M86YDWSA1OCE , Good Work
Bonus, A3M86YDWSA1OCE , 0.05
Approved, A3MDC2IYW3NINB , Good Work
Approved, A3MFZH3JXFOA96 , Good Work
Approved, A3MHT5P4POEKJF , Good Work
Approved, A3MWOH5LEMOS98 , Good Work
Bonus, A3MWOH5LEMOS98 , 0.05
Approved, A3NIL30HJRECDM , Good Work
Bonus, A3NIL30HJRECDM , 0.25
Approved, A3NIQAC5BERA3H , Good Work
Bonus, A3NIQAC5BERA3H , 0.25
Approved, A3P0P0DRSOX52W , Good Work
Bonus, A3P0P0DRSOX52W , 0.25
Approved, A3P2WQO8VESWF2 , Good Work
Bonus, A3P2WQO8VESWF2 , 0.15
Rejected, A3P34V0J7POJYA , ['Error rate too high (more than 100 errors).']
Approved, A3PDDNF6XO847G , Good Work
Bonus, A3PDDNF6XO847G , 0.25
Rejected, A3PN81ULS5UJ1R , ['Same IP as other worker - multiple accounts.']
Approved, A3PZD0JBL44BHX , Good Work
Bonus, A3PZD0JBL44BHX , 0.15
Approved, A3Q2P97KYVUYDK , Good Work
Approved, A3QB75V20Q52YN , Good Work
Bonus, A3QB75V20Q52YN , 0.05
Approved, A3RLGCHKL1T5FU , Good Work
Bonus, A3RLGCHKL1T5FU , 0.05
Rejected, A3ROFA6CFTKGPG , ['Error rate too high (more than 100 errors).']
Approved, A3SAJ0TZO2XV42 , Good Work
Bonus, A3SAJ0TZO2XV42 , 0.15
Approved, A3SPM9D2Y1G70R , Good Work
Bonus, A3SPM9D2Y1G70R , 0.15
Approved, A3SQES2JQTAQ4M , Good Work
Bonus, A3SQES2JQTAQ4M , 0.25
Rejected, A3SR4EVNA94GT4 , ['Error rate too high (more than 100 errors).']
Rejected, A3SSENDBCW0OIE , ['Same IP as other worker - multiple accounts.']
Approved, A3STGCG061GLAV , Good Work
Bonus, A3STGCG061GLAV , 0.25
Approved, A3TEFA84DYSVP2 , Good Work
Bonus, A3TEFA84DYSVP2 , 0.25
Approved, A3TJTN9O9J3EGL , Good Work
Bonus, A3TJTN9O9J3EGL , 0.25
Approved, A3TVSSXCPU8YS0 , Good Work
Bonus, A3TVSSXCPU8YS0 , 0.25
Rejected, A3UKQFM0W3YPFY , ['Did not do first paragraph transcription.']
Rejected, A3UWB140DL9MNU , ['Did not do first paragraph transcription.']
Approved, A3VAMXJ32CL2BQ , Good Work
Bonus, A3VAMXJ32CL2BQ , 0.25
Approved, A3VSUSUO8ZZPNE , Good Work
Approved, A4B3520UJC4PL , Good Work
Bonus, A4B3520UJC4PL , 0.05
Approved, A4FKC279WMFZC , Good Work
Bonus, A4FKC279WMFZC , 0.15
Rejected, A4LMULNC6DTXL , ['Error rate too high (more than 100 errors).']
Rejected, A4N3OC40DPHOY , ['Same IP as other worker - multiple accounts.']
Rejected, A4R42OUL9KXMW , ['Error rate too high (more than 100 errors).']
Approved, A5FBIT5QAHQJI , Good Work
Bonus, A5FBIT5QAHQJI , 0.15
Approved, A5QEKXVL8NZV , Good Work
Rejected, A69S1CM98R8CP , No match
Rejected, A6JKQMB5GF1DX , ['Did not do first paragraph transcription.']
Approved, A7NH80GQ3UC8L , Good Work
Bonus, A7NH80GQ3UC8L , 0.25
Rejected, A7WSGGJUYZUNM , ['Error rate too high (more than 100 errors).']
Approved, A863PSWPPI49A , Good Work
Bonus, A863PSWPPI49A , 0.15
Approved, A8SZ5NXK6T1PV , Good Work
Bonus, A8SZ5NXK6T1PV , 0.05
Approved, A94VTJKW6AHKH , Good Work
Bonus, A94VTJKW6AHKH , 0.15
Approved, A96NE2N5PVZNY , Good Work
Rejected, A98XHW6B1VSSQ , ['Error rate too high (more than 100 errors).']
Approved, A99OHHH4MZZKO , Good Work
Bonus, A99OHHH4MZZKO , 0.25
Approved, A99OJPRQIF1DM , Good Work
Bonus, A99OJPRQIF1DM , 0.15
Approved, A9GHUQZRGE0JK , Good Work
Bonus, A9GHUQZRGE0JK , 0.05
Approved, AA3V5BYE3MSQW , Good Work
Bonus, AA3V5BYE3MSQW , 0.15
Approved, AABJ85UQD2O4C , Good Work
Bonus, AABJ85UQD2O4C , 0.15
Approved, AACRWKKONHPIG , Good Work
Bonus, AACRWKKONHPIG , 0.25
Rejected, AAOKJ6356Z9X6 , ['Same IP as other worker - multiple accounts.']
Rejected, AAY12EOE3HXT0 , ['Did not do first paragraph transcription.']
Approved, AB918JOSHY743 , Good Work
Approved, ABF3EMW2HZ8AO , Good Work
Bonus, ABF3EMW2HZ8AO , 0.15
Rejected, ABHWCWORN0Q74 , ['Same IP as other worker - multiple accounts.']
Rejected, ABSG9BRMEFESP , ['Error rate too high (more than 100 errors).']
Approved, ACOZ2LE1E828L , Good Work
Approved, ACX3JATE4VEGX , Good Work
Bonus, ACX3JATE4VEGX , 0.01
Rejected, AD0C4KEHIZ6Q3 , No match
Approved, AD0D5IOK189BD , Good Work
Bonus, AD0D5IOK189BD , 0.15
Rejected, ADYFU3XXWX0TU , ['Error rate too high (more than 100 errors).']
Approved, AE5XUOX9MKOP0 , Good Work
Bonus, AE5XUOX9MKOP0 , 0.15
Approved, AEV78JMZZ7DMU , Good Work
Bonus, AEV78JMZZ7DMU , 0.05
Approved, AEZDFXPCMI4ZT , Good Work
Bonus, AEZDFXPCMI4ZT , 0.15
Approved, AEZLNP6IYJ7GC , Good Work
Bonus, AEZLNP6IYJ7GC , 0.01
Approved, AFAJMHG41F7Q9 , Good Work
Bonus, AFAJMHG41F7Q9 , 0.01
Approved, AFMNX13JYXJ48 , Good Work
Bonus, AFMNX13JYXJ48 , 0.01
Approved, AFZQUDYU49280 , Good Work
Bonus, AFZQUDYU49280 , 0.15
Approved, AGOY7B6MF3A5 , Good Work
Bonus, AGOY7B6MF3A5 , 0.15
Approved, AGRBDQZB5QK36 , Good Work
Bonus, AGRBDQZB5QK36 , 0.25
Rejected, AH65XP04O5VKY , ['Error rate too high (more than 100 errors).']
Approved, AHPR6M3OF0BMK , Good Work
Bonus, AHPR6M3OF0BMK , 0.01
Approved, AHSLC5842O9K1 , Good Work
Bonus, AHSLC5842O9K1 , 0.15
Rejected, AHT08N0KI0OWV , No match
Approved, AHYBNX8WAFFD7 , Good Work
Bonus, AHYBNX8WAFFD7 , 0.05
Approved, AI42JNQNCS7MO , Good Work
Approved, AIXUO9QBZTQOX , Good Work
Bonus, AIXUO9QBZTQOX , 0.25
Approved, AJ3CE3PZMTP6 , Good Work
Approved, AJ55UYHX9UYNE , Good Work
Bonus, AJ55UYHX9UYNE , 0.01
Approved, AJQRGMWCZ0JRJ , Good Work
Approved, AK3GZE8MPQL4Y , Good Work
Bonus, AK3GZE8MPQL4Y , 0.05
Approved, AK852FDMPT3N6 , Good Work
Bonus, AK852FDMPT3N6 , 0.01
Rejected, AKCHZBDSKLJ9R , ['Same IP as other worker - multiple accounts.']
Rejected, AKHAO7U8IF57P , ['Did not do first paragraph transcription.']
Approved, AKY0BHOZJQ03G , Good Work
Bonus, AKY0BHOZJQ03G , 0.05
Approved, AL5PVNOFBAHDP , Good Work
Bonus, AL5PVNOFBAHDP , 0.25
Rejected, ALYT2GSZDL3QY , ['Did not do first paragraph transcription.']
Approved, AMH72TKZEDEYY , Good Work
Bonus, AMH72TKZEDEYY , 0.15
Approved, AMU7RM32H0M1N , Good Work
Approved, ANTBIVEMQ1D2F , Good Work
Bonus, ANTBIVEMQ1D2F , 0.25
Approved, AO7WMYWJD3ZSR , Good Work
Bonus, AO7WMYWJD3ZSR , 0.01
Rejected, AOLFKEKV575YG , ['Did not do first paragraph transcription.']
Approved, AORFXVSW8DDHP , Good Work
Approved, AOWGG3A0N4XBK , Good Work
Bonus, AOWGG3A0N4XBK , 0.15
Rejected, AOZ7MCYYHWNNO , ['Did not do first paragraph transcription.']
Approved, APGIPX5FXIXS0 , Good Work
Approved, AQYHMDB1IGUHH , Good Work
Bonus, AQYHMDB1IGUHH , 0.01
Rejected, AR33QBQ0VTLKY , ['Error rate too high (more than 100 errors).', 'Error rate too high (more than 100 errors).']
Rejected, AR3RTTX71Y7EN , ['Same IP as other worker - multiple accounts.']
Rejected, AREIKETW3F5R2 , ['Did not do first paragraph transcription.']
Approved, ARSIZGING54G , Good Work
Approved, AS50O3ZT54EIN , Good Work
Approved, ATKYQPW21SVNU , Good Work
Approved, ATQ5279MUHKM , Good Work
Bonus, ATQ5279MUHKM , 0.25
Rejected, ATTRK0B2TI6AE , ['Did not do first paragraph transcription.']
Approved, ATV4GJHYQ7KJ1 , Good Work
Bonus, ATV4GJHYQ7KJ1 , 0.25
Approved, AU2AR4VOB7VLV , Good Work
Bonus, AU2AR4VOB7VLV , 0.15
Approved, AUL1SKWYE6ZLR , Good Work
Bonus, AUL1SKWYE6ZLR , 0.01
Approved, AUMB617RXM9CU , Good Work
Approved, AUNCB329TO9FV , Good Work
Bonus, AUNCB329TO9FV , 0.25
Approved, AVHTFOHVRTCJ7 , Good Work
Bonus, AVHTFOHVRTCJ7 , 0.01
Approved, AVOWWSSBFPB1C , Good Work
Bonus, AVOWWSSBFPB1C , 0.25
Approved, AWDW9HEQTAQ3C , Good Work
Bonus, AWDW9HEQTAQ3C , 0.25
Approved, AWPWBV6JY3G0B , Good Work
Bonus, AWPWBV6JY3G0B , 0.15
Approved, AWRAXV1RIYR0M , Good Work
Bonus, AWRAXV1RIYR0M , 0.01
Rejected, AXJMXDYR50O89 , ['Same IP as other worker - multiple accounts.']
Approved, AXNJ7GCWP4G5H , Good Work
Bonus, AXNJ7GCWP4G5H , 0.25
Approved, AXXPTEYYMJNQ4 , Good Work
Bonus, AXXPTEYYMJNQ4 , 0.01
Approved, AY3GVJYVK19S2 , Good Work
Bonus, AY3GVJYVK19S2 , 0.25
Approved, AY5QPUSEADPBG , Good Work
Bonus, AY5QPUSEADPBG , 0.25
Rejected, AZ3FQF2TPQT2C , ['Same IP as other worker - multiple accounts.']
Approved, AZSFG84ODALK3 , Good Work
Bonus, AZSFG84ODALK3 , 0.15


